module exercise_06

go 1.22

require (
	github.com/davecgh/go-spew v1.1.1 // indirect
	github.com/dustin/go-humanize v1.0.1 // indirect
	github.com/google/uuid v1.6.0 // indirect
	github.com/mattn/go-isatty v0.0.20 // indirect
	github.com/mattn/go-sqlite3 v1.14.22 // indirect
	github.com/pmezard/go-difflib v1.0.0 // indirect
	github.com/remyoudompheng/bigfft v0.0.0-20230129092748-24d4a6f8daec // indirect
	github.com/stretchr/testify v1.9.0 // indirect
	golang.org/x/sys v0.15.0 // indirect
	gopkg.in/yaml.v3 v3.0.1 // indirect
	modernc.org/libc v1.37.6 // indirect
	modernc.org/mathutil v1.6.0 // indirect
	modernc.org/memory v1.7.2 // indirect
	modernc.org/sqlite v1.28.0 // indirect
)
